info face="cinnamon cake" size=30 bold=1 italic=0 charset="" unicode=0 stretchH=100 smooth=1 aa=1 padding=0,0,0,0 spacing=0,0
common lineHeight=31 base=23 scaleW=256 scaleH=256 pages=1 packed=0
page id=0 file="Cinnamon30WhiteBold.png"
chars count=94
char id=32   x=0     y=0     width=0     height=0     xoffset=0     yoffset=23    xadvance=10     page=0  chnl=0 
char id=124   x=0     y=0     width=5     height=31     xoffset=2     yoffset=-2    xadvance=7     page=0  chnl=0 
char id=93   x=5     y=0     width=13     height=31     xoffset=-3     yoffset=-3    xadvance=7     page=0  chnl=0 
char id=91   x=18     y=0     width=14     height=31     xoffset=0     yoffset=-3    xadvance=6     page=0  chnl=0 
char id=125   x=32     y=0     width=14     height=30     xoffset=-3     yoffset=-2    xadvance=8     page=0  chnl=0 
char id=123   x=46     y=0     width=15     height=30     xoffset=1     yoffset=-2    xadvance=8     page=0  chnl=0 
char id=41   x=61     y=0     width=12     height=30     xoffset=-2     yoffset=-2    xadvance=8     page=0  chnl=0 
char id=40   x=73     y=0     width=13     height=30     xoffset=1     yoffset=-2    xadvance=8     page=0  chnl=0 
char id=89   x=86     y=0     width=17     height=28     xoffset=1     yoffset=2    xadvance=17     page=0  chnl=0 
char id=100   x=103     y=0     width=18     height=27     xoffset=0     yoffset=0    xadvance=17     page=0  chnl=0 
char id=81   x=121     y=0     width=20     height=26     xoffset=0     yoffset=1    xadvance=19     page=0  chnl=0 
char id=85   x=141     y=0     width=19     height=25     xoffset=0     yoffset=0    xadvance=18     page=0  chnl=0 
char id=37   x=160     y=0     width=17     height=24     xoffset=0     yoffset=1    xadvance=16     page=0  chnl=0 
char id=92   x=177     y=0     width=12     height=24     xoffset=1     yoffset=1    xadvance=12     page=0  chnl=0 
char id=47   x=189     y=0     width=13     height=24     xoffset=1     yoffset=1    xadvance=13     page=0  chnl=0 
char id=107   x=202     y=0     width=15     height=24     xoffset=1     yoffset=1    xadvance=16     page=0  chnl=0 
char id=106   x=217     y=0     width=17     height=24     xoffset=-5     yoffset=5    xadvance=9     page=0  chnl=0 
char id=98   x=234     y=0     width=18     height=24     xoffset=1     yoffset=1    xadvance=18     page=0  chnl=0 
char id=87   x=0     y=31     width=22     height=24     xoffset=1     yoffset=1    xadvance=22     page=0  chnl=0 
char id=84   x=22     y=31     width=16     height=24     xoffset=1     yoffset=1    xadvance=16     page=0  chnl=0 
char id=83   x=38     y=31     width=17     height=24     xoffset=1     yoffset=1    xadvance=18     page=0  chnl=0 
char id=80   x=55     y=31     width=23     height=24     xoffset=0     yoffset=1    xadvance=22     page=0  chnl=0 
char id=79   x=78     y=31     width=20     height=24     xoffset=0     yoffset=1    xadvance=19     page=0  chnl=0 
char id=78   x=98     y=31     width=20     height=24     xoffset=0     yoffset=1    xadvance=19     page=0  chnl=0 
char id=75   x=118     y=31     width=16     height=24     xoffset=1     yoffset=1    xadvance=16     page=0  chnl=0 
char id=74   x=134     y=31     width=17     height=24     xoffset=1     yoffset=1    xadvance=17     page=0  chnl=0 
char id=73   x=151     y=31     width=15     height=24     xoffset=1     yoffset=1    xadvance=15     page=0  chnl=0 
char id=71   x=166     y=31     width=22     height=24     xoffset=1     yoffset=2    xadvance=22     page=0  chnl=0 
char id=66   x=188     y=31     width=23     height=24     xoffset=0     yoffset=1    xadvance=22     page=0  chnl=0 
char id=65   x=211     y=31     width=23     height=24     xoffset=1     yoffset=1    xadvance=23     page=0  chnl=0 
char id=36   x=234     y=31     width=13     height=23     xoffset=1     yoffset=3    xadvance=12     page=0  chnl=0 
char id=64   x=0     y=55     width=27     height=23     xoffset=1     yoffset=5    xadvance=27     page=0  chnl=0 
char id=63   x=27     y=55     width=15     height=23     xoffset=1     yoffset=2    xadvance=15     page=0  chnl=0 
char id=57   x=42     y=55     width=17     height=23     xoffset=0     yoffset=2    xadvance=17     page=0  chnl=0 
char id=52   x=59     y=55     width=16     height=23     xoffset=1     yoffset=2    xadvance=16     page=0  chnl=0 
char id=116   x=75     y=55     width=12     height=23     xoffset=1     yoffset=2    xadvance=11     page=0  chnl=0 
char id=113   x=87     y=55     width=18     height=23     xoffset=0     yoffset=7    xadvance=18     page=0  chnl=0 
char id=112   x=105     y=55     width=18     height=23     xoffset=0     yoffset=7    xadvance=18     page=0  chnl=0 
char id=104   x=123     y=55     width=19     height=23     xoffset=0     yoffset=2    xadvance=19     page=0  chnl=0 
char id=90   x=142     y=55     width=17     height=23     xoffset=1     yoffset=1    xadvance=17     page=0  chnl=0 
char id=88   x=159     y=55     width=19     height=23     xoffset=0     yoffset=2    xadvance=18     page=0  chnl=0 
char id=86   x=178     y=55     width=21     height=23     xoffset=0     yoffset=1    xadvance=20     page=0  chnl=0 
char id=77   x=199     y=55     width=24     height=23     xoffset=1     yoffset=2    xadvance=24     page=0  chnl=0 
char id=70   x=223     y=55     width=18     height=23     xoffset=0     yoffset=2    xadvance=17     page=0  chnl=0 
char id=69   x=0     y=78     width=18     height=23     xoffset=0     yoffset=2    xadvance=17     page=0  chnl=0 
char id=68   x=18     y=78     width=20     height=23     xoffset=0     yoffset=2    xadvance=19     page=0  chnl=0 
char id=67   x=38     y=78     width=21     height=23     xoffset=1     yoffset=2    xadvance=21     page=0  chnl=0 
char id=33   x=59     y=78     width=6     height=22     xoffset=2     yoffset=2    xadvance=8     page=0  chnl=0 
char id=50   x=65     y=78     width=16     height=22     xoffset=1     yoffset=3    xadvance=16     page=0  chnl=0 
char id=49   x=81     y=78     width=8     height=22     xoffset=1     yoffset=3    xadvance=8     page=0  chnl=0 
char id=121   x=89     y=78     width=16     height=22     xoffset=1     yoffset=8    xadvance=16     page=0  chnl=0 
char id=102   x=105     y=78     width=13     height=22     xoffset=1     yoffset=2    xadvance=13     page=0  chnl=0 
char id=82   x=118     y=78     width=19     height=22     xoffset=1     yoffset=2    xadvance=19     page=0  chnl=0 
char id=76   x=137     y=78     width=15     height=22     xoffset=1     yoffset=2    xadvance=15     page=0  chnl=0 
char id=72   x=152     y=78     width=20     height=22     xoffset=0     yoffset=2    xadvance=19     page=0  chnl=0 
char id=48   x=172     y=78     width=16     height=21     xoffset=1     yoffset=3    xadvance=16     page=0  chnl=0 
char id=56   x=188     y=78     width=21     height=21     xoffset=0     yoffset=4    xadvance=20     page=0  chnl=0 
char id=55   x=209     y=78     width=17     height=21     xoffset=1     yoffset=3    xadvance=17     page=0  chnl=0 
char id=54   x=226     y=78     width=15     height=21     xoffset=1     yoffset=3    xadvance=15     page=0  chnl=0 
char id=53   x=0     y=101     width=16     height=21     xoffset=1     yoffset=3    xadvance=16     page=0  chnl=0 
char id=51   x=16     y=101     width=17     height=21     xoffset=1     yoffset=3    xadvance=17     page=0  chnl=0 
char id=108   x=33     y=101     width=6     height=21     xoffset=1     yoffset=2    xadvance=6     page=0  chnl=0 
char id=103   x=39     y=101     width=16     height=21     xoffset=0     yoffset=7    xadvance=15     page=0  chnl=0 
char id=38   x=55     y=101     width=17     height=20     xoffset=0     yoffset=6    xadvance=15     page=0  chnl=0 
char id=105   x=72     y=101     width=6     height=20     xoffset=1     yoffset=5    xadvance=7     page=0  chnl=0 
char id=117   x=78     y=101     width=18     height=19     xoffset=1     yoffset=6    xadvance=17     page=0  chnl=0 
char id=97   x=96     y=101     width=17     height=19     xoffset=0     yoffset=7    xadvance=17     page=0  chnl=0 
char id=114   x=113     y=101     width=13     height=18     xoffset=1     yoffset=7    xadvance=13     page=0  chnl=0 
char id=111   x=126     y=101     width=18     height=18     xoffset=1     yoffset=7    xadvance=18     page=0  chnl=0 
char id=110   x=144     y=101     width=18     height=18     xoffset=1     yoffset=7    xadvance=18     page=0  chnl=0 
char id=109   x=162     y=101     width=25     height=18     xoffset=1     yoffset=7    xadvance=25     page=0  chnl=0 
char id=59   x=187     y=101     width=7     height=17     xoffset=1     yoffset=10    xadvance=8     page=0  chnl=0 
char id=122   x=194     y=101     width=18     height=17     xoffset=0     yoffset=8    xadvance=17     page=0  chnl=0 
char id=119   x=212     y=101     width=23     height=17     xoffset=1     yoffset=8    xadvance=23     page=0  chnl=0 
char id=118   x=235     y=101     width=19     height=17     xoffset=0     yoffset=7    xadvance=18     page=0  chnl=0 
char id=115   x=0     y=122     width=15     height=17     xoffset=1     yoffset=7    xadvance=15     page=0  chnl=0 
char id=101   x=15     y=122     width=16     height=17     xoffset=1     yoffset=7    xadvance=16     page=0  chnl=0 
char id=99   x=31     y=122     width=16     height=17     xoffset=1     yoffset=7    xadvance=15     page=0  chnl=0 
char id=120   x=47     y=122     width=16     height=16     xoffset=1     yoffset=8    xadvance=16     page=0  chnl=0 
char id=35   x=63     y=122     width=18     height=14     xoffset=0     yoffset=6    xadvance=17     page=0  chnl=0 
char id=62   x=81     y=122     width=10     height=14     xoffset=1     yoffset=7    xadvance=10     page=0  chnl=0 
char id=60   x=91     y=122     width=10     height=14     xoffset=1     yoffset=7    xadvance=10     page=0  chnl=0 
char id=58   x=101     y=122     width=6     height=14     xoffset=2     yoffset=10    xadvance=8     page=0  chnl=0 
char id=42   x=107     y=122     width=14     height=12     xoffset=1     yoffset=6    xadvance=15     page=0  chnl=0 
char id=43   x=121     y=122     width=16     height=12     xoffset=0     yoffset=7    xadvance=15     page=0  chnl=0 
char id=39   x=137     y=122     width=5     height=9     xoffset=1     yoffset=3    xadvance=5     page=0  chnl=0 
char id=34   x=142     y=122     width=9     height=9     xoffset=1     yoffset=3    xadvance=9     page=0  chnl=0 
char id=61   x=151     y=122     width=12     height=8     xoffset=0     yoffset=9    xadvance=11     page=0  chnl=0 
char id=94   x=163     y=122     width=13     height=8     xoffset=1     yoffset=-5    xadvance=13     page=0  chnl=0 
char id=44   x=176     y=122     width=7     height=8     xoffset=1     yoffset=19    xadvance=8     page=0  chnl=0 
char id=96   x=183     y=122     width=10     height=8     xoffset=1     yoffset=-5    xadvance=10     page=0  chnl=0 
char id=126   x=193     y=122     width=12     height=7     xoffset=1     yoffset=9    xadvance=12     page=0  chnl=0 
char id=95   x=205     y=122     width=13     height=5     xoffset=1     yoffset=20    xadvance=13     page=0  chnl=0 
char id=45   x=218     y=122     width=11     height=5     xoffset=1     yoffset=10    xadvance=11     page=0  chnl=0 
char id=46   x=229     y=122     width=6     height=5     xoffset=2     yoffset=19    xadvance=8     page=0  chnl=0 
kernings count=191
kerning first=100  second=98  amount=1
kerning first=107  second=99  amount=-1
kerning first=107  second=101  amount=-2
kerning first=107  second=111  amount=-2
kerning first=107  second=113  amount=-2
kerning first=107  second=121  amount=-2
kerning first=106  second=99  amount=-1
kerning first=106  second=104  amount=-2
kerning first=98  second=98  amount=-1
kerning first=98  second=118  amount=-2
kerning first=98  second=86  amount=-3
kerning first=84  second=99  amount=-4
kerning first=84  second=100  amount=-4
kerning first=84  second=101  amount=-4
kerning first=84  second=102  amount=-3
kerning first=84  second=103  amount=-4
kerning first=84  second=105  amount=-2
kerning first=84  second=106  amount=-3
kerning first=84  second=109  amount=-3
kerning first=84  second=110  amount=-3
kerning first=84  second=111  amount=-5
kerning first=84  second=112  amount=-3
kerning first=84  second=113  amount=-4
kerning first=84  second=114  amount=-3
kerning first=84  second=115  amount=-4
kerning first=84  second=116  amount=-2
kerning first=84  second=117  amount=-3
kerning first=84  second=118  amount=-3
kerning first=84  second=119  amount=-3
kerning first=84  second=120  amount=-3
kerning first=84  second=121  amount=-2
kerning first=84  second=122  amount=-2
kerning first=84  second=97  amount=-5
kerning first=83  second=116  amount=-2
kerning first=80  second=111  amount=-1
kerning first=80  second=113  amount=-1
kerning first=80  second=115  amount=-1
kerning first=75  second=99  amount=-3
kerning first=75  second=100  amount=-4
kerning first=75  second=101  amount=-3
kerning first=75  second=102  amount=-3
kerning first=75  second=103  amount=-3
kerning first=75  second=106  amount=-2
kerning first=75  second=111  amount=-3
kerning first=75  second=113  amount=-3
kerning first=75  second=115  amount=-2
kerning first=75  second=116  amount=-2
kerning first=75  second=117  amount=-3
kerning first=75  second=118  amount=-3
kerning first=75  second=119  amount=-2
kerning first=75  second=120  amount=-2
kerning first=75  second=121  amount=-2
kerning first=75  second=122  amount=-3
kerning first=75  second=97  amount=-3
kerning first=73  second=99  amount=-2
kerning first=73  second=100  amount=-2
kerning first=73  second=101  amount=-1
kerning first=73  second=102  amount=-3
kerning first=73  second=111  amount=-1
kerning first=73  second=113  amount=-2
kerning first=73  second=116  amount=-2
kerning first=73  second=118  amount=-3
kerning first=73  second=119  amount=-2
kerning first=73  second=121  amount=-2
kerning first=73  second=97  amount=-2
kerning first=52  second=49  amount=-1
kerning first=52  second=55  amount=-2
kerning first=52  second=51  amount=-2
kerning first=52  second=50  amount=-2
kerning first=113  second=86  amount=-1
kerning first=112  second=118  amount=-2
kerning first=112  second=86  amount=-3
kerning first=104  second=97  amount=1
kerning first=104  second=86  amount=-2
kerning first=88  second=101  amount=-1
kerning first=88  second=102  amount=-2
kerning first=88  second=111  amount=-2
kerning first=88  second=97  amount=-1
kerning first=86  second=99  amount=-1
kerning first=86  second=100  amount=-2
kerning first=86  second=101  amount=-2
kerning first=86  second=102  amount=-1
kerning first=86  second=103  amount=-2
kerning first=86  second=109  amount=-1
kerning first=86  second=111  amount=-2
kerning first=86  second=113  amount=-2
kerning first=86  second=115  amount=-2
kerning first=86  second=118  amount=-1
kerning first=86  second=120  amount=-2
kerning first=86  second=121  amount=-1
kerning first=86  second=97  amount=-2
kerning first=70  second=99  amount=-3
kerning first=70  second=100  amount=-3
kerning first=70  second=101  amount=-4
kerning first=70  second=102  amount=-2
kerning first=70  second=103  amount=-5
kerning first=70  second=105  amount=-3
kerning first=70  second=106  amount=-3
kerning first=70  second=108  amount=-1
kerning first=70  second=109  amount=-2
kerning first=70  second=110  amount=-2
kerning first=70  second=111  amount=-4
kerning first=70  second=112  amount=-3
kerning first=70  second=113  amount=-3
kerning first=70  second=114  amount=-3
kerning first=70  second=115  amount=-4
kerning first=70  second=116  amount=-2
kerning first=70  second=117  amount=-2
kerning first=70  second=118  amount=-3
kerning first=70  second=119  amount=-3
kerning first=70  second=120  amount=-3
kerning first=70  second=121  amount=-4
kerning first=70  second=122  amount=-3
kerning first=70  second=97  amount=-4
kerning first=50  second=53  amount=1
kerning first=49  second=53  amount=1
kerning first=49  second=52  amount=1
kerning first=121  second=97  amount=1
kerning first=121  second=86  amount=-2
kerning first=102  second=99  amount=-1
kerning first=102  second=101  amount=-2
kerning first=102  second=102  amount=-1
kerning first=102  second=103  amount=-2
kerning first=102  second=106  amount=-1
kerning first=102  second=110  amount=-1
kerning first=102  second=111  amount=-2
kerning first=102  second=112  amount=-1
kerning first=102  second=113  amount=-1
kerning first=102  second=114  amount=-1
kerning first=102  second=115  amount=-2
kerning first=102  second=116  amount=-1
kerning first=102  second=117  amount=-1
kerning first=102  second=118  amount=-1
kerning first=102  second=119  amount=-1
kerning first=102  second=120  amount=-2
kerning first=102  second=121  amount=-2
kerning first=102  second=122  amount=-1
kerning first=102  second=97  amount=-2
kerning first=76  second=102  amount=-2
kerning first=76  second=116  amount=-3
kerning first=76  second=118  amount=-4
kerning first=76  second=84  amount=-2
kerning first=76  second=86  amount=-5
kerning first=48  second=55  amount=-3
kerning first=56  second=49  amount=-2
kerning first=56  second=57  amount=-2
kerning first=56  second=55  amount=-3
kerning first=56  second=52  amount=-2
kerning first=56  second=50  amount=-1
kerning first=55  second=48  amount=-2
kerning first=55  second=57  amount=-1
kerning first=55  second=56  amount=-2
kerning first=55  second=54  amount=-2
kerning first=55  second=51  amount=-1
kerning first=54  second=49  amount=-3
kerning first=54  second=57  amount=-1
kerning first=54  second=55  amount=-3
kerning first=54  second=51  amount=-1
kerning first=54  second=50  amount=-2
kerning first=53  second=49  amount=-2
kerning first=53  second=57  amount=-1
kerning first=53  second=55  amount=-2
kerning first=53  second=50  amount=-2
kerning first=51  second=49  amount=-2
kerning first=51  second=57  amount=-2
kerning first=51  second=55  amount=-2
kerning first=51  second=52  amount=-2
kerning first=51  second=51  amount=-2
kerning first=51  second=50  amount=-2
kerning first=103  second=86  amount=-3
kerning first=117  second=97  amount=1
kerning first=97  second=111  amount=-1
kerning first=97  second=86  amount=-2
kerning first=114  second=99  amount=-1
kerning first=114  second=101  amount=-2
kerning first=114  second=97  amount=-2
kerning first=111  second=118  amount=-2
kerning first=111  second=86  amount=-3
kerning first=111  second=88  amount=-2
kerning first=110  second=86  amount=-3
kerning first=109  second=86  amount=-3
kerning first=118  second=101  amount=-1
kerning first=118  second=111  amount=-1
kerning first=118  second=113  amount=-1
kerning first=118  second=115  amount=-2
kerning first=118  second=86  amount=-2
kerning first=115  second=86  amount=-3
kerning first=101  second=118  amount=-2
kerning first=101  second=120  amount=-1
kerning first=101  second=86  amount=-4
kerning first=99  second=86  amount=-2
kerning first=120  second=86  amount=-2
