info face="AlphaFridgeMagnetsAllCap" size=35 bold=0 italic=0 charset="" unicode=0 stretchH=100 smooth=1 aa=1 padding=0,0,0,0 spacing=0,0
common lineHeight=49 base=38 scaleW=512 scaleH=512 pages=1 packed=0
page id=0 file="Fridge30-caps.png"
chars count=95
char id=32   x=0     y=0     width=0     height=0     xoffset=0     yoffset=38    xadvance=13     page=0  chnl=0 
char id=127   x=0     y=0     width=19     height=51     xoffset=2     yoffset=-1    xadvance=18     page=0  chnl=0 
char id=42   x=19     y=0     width=23     height=51     xoffset=0     yoffset=-1    xadvance=21     page=0  chnl=0 
char id=126   x=42     y=0     width=30     height=51     xoffset=0     yoffset=-1    xadvance=28     page=0  chnl=0 
char id=38   x=72     y=0     width=21     height=51     xoffset=0     yoffset=-1    xadvance=20     page=0  chnl=0 
char id=95   x=93     y=0     width=32     height=51     xoffset=1     yoffset=-1    xadvance=31     page=0  chnl=0 
char id=35   x=125     y=0     width=29     height=51     xoffset=1     yoffset=-1    xadvance=28     page=0  chnl=0 
char id=61   x=154     y=0     width=29     height=51     xoffset=1     yoffset=-1    xadvance=28     page=0  chnl=0 
char id=43   x=183     y=0     width=28     height=51     xoffset=1     yoffset=-1    xadvance=27     page=0  chnl=0 
char id=37   x=211     y=0     width=27     height=51     xoffset=0     yoffset=-1    xadvance=26     page=0  chnl=0 
char id=45   x=238     y=0     width=21     height=51     xoffset=1     yoffset=-1    xadvance=20     page=0  chnl=0 
char id=36   x=259     y=0     width=21     height=51     xoffset=0     yoffset=-1    xadvance=20     page=0  chnl=0 
char id=94   x=280     y=0     width=24     height=51     xoffset=0     yoffset=-1    xadvance=23     page=0  chnl=0 
char id=92   x=304     y=0     width=15     height=51     xoffset=-1     yoffset=-1    xadvance=13     page=0  chnl=0 
char id=64   x=319     y=0     width=31     height=51     xoffset=0     yoffset=-1    xadvance=29     page=0  chnl=0 
char id=47   x=350     y=0     width=14     height=51     xoffset=-1     yoffset=-1    xadvance=11     page=0  chnl=0 
char id=124   x=364     y=0     width=11     height=51     xoffset=3     yoffset=-1    xadvance=10     page=0  chnl=0 
char id=62   x=375     y=0     width=19     height=51     xoffset=-1     yoffset=-1    xadvance=17     page=0  chnl=0 
char id=60   x=394     y=0     width=18     height=51     xoffset=-1     yoffset=-1    xadvance=17     page=0  chnl=0 
char id=125   x=412     y=0     width=15     height=51     xoffset=0     yoffset=-1    xadvance=13     page=0  chnl=0 
char id=123   x=427     y=0     width=14     height=51     xoffset=0     yoffset=-1    xadvance=13     page=0  chnl=0 
char id=93   x=441     y=0     width=15     height=51     xoffset=1     yoffset=-1    xadvance=14     page=0  chnl=0 
char id=91   x=456     y=0     width=14     height=51     xoffset=0     yoffset=-1    xadvance=13     page=0  chnl=0 
char id=41   x=470     y=0     width=13     height=51     xoffset=-1     yoffset=-1    xadvance=11     page=0  chnl=0 
char id=40   x=483     y=0     width=11     height=51     xoffset=-1     yoffset=-1    xadvance=10     page=0  chnl=0 
char id=58   x=494     y=0     width=10     height=51     xoffset=1     yoffset=-1    xadvance=9     page=0  chnl=0 
char id=59   x=0     y=51     width=11     height=51     xoffset=1     yoffset=-1    xadvance=10     page=0  chnl=0 
char id=44   x=11     y=51     width=10     height=51     xoffset=1     yoffset=-1    xadvance=9     page=0  chnl=0 
char id=46   x=21     y=51     width=10     height=51     xoffset=1     yoffset=-1    xadvance=9     page=0  chnl=0 
char id=39   x=31     y=51     width=10     height=51     xoffset=1     yoffset=-1    xadvance=9     page=0  chnl=0 
char id=63   x=41     y=51     width=14     height=51     xoffset=0     yoffset=-1    xadvance=13     page=0  chnl=0 
char id=96   x=55     y=51     width=10     height=51     xoffset=0     yoffset=-1    xadvance=9     page=0  chnl=0 
char id=33   x=65     y=51     width=13     height=51     xoffset=2     yoffset=-1    xadvance=12     page=0  chnl=0 
char id=34   x=78     y=51     width=16     height=51     xoffset=1     yoffset=-1    xadvance=15     page=0  chnl=0 
char id=48   x=94     y=51     width=21     height=51     xoffset=0     yoffset=-1    xadvance=19     page=0  chnl=0 
char id=57   x=115     y=51     width=22     height=51     xoffset=0     yoffset=-1    xadvance=20     page=0  chnl=0 
char id=56   x=137     y=51     width=19     height=51     xoffset=0     yoffset=-1    xadvance=18     page=0  chnl=0 
char id=55   x=156     y=51     width=20     height=51     xoffset=-1     yoffset=-1    xadvance=19     page=0  chnl=0 
char id=54   x=176     y=51     width=22     height=51     xoffset=0     yoffset=-1    xadvance=20     page=0  chnl=0 
char id=53   x=198     y=51     width=20     height=51     xoffset=-1     yoffset=-1    xadvance=19     page=0  chnl=0 
char id=52   x=218     y=51     width=21     height=51     xoffset=0     yoffset=-1    xadvance=20     page=0  chnl=0 
char id=51   x=239     y=51     width=20     height=51     xoffset=0     yoffset=-1    xadvance=19     page=0  chnl=0 
char id=50   x=259     y=51     width=21     height=51     xoffset=0     yoffset=-1    xadvance=19     page=0  chnl=0 
char id=49   x=280     y=51     width=14     height=51     xoffset=1     yoffset=-1    xadvance=13     page=0  chnl=0 
char id=122   x=294     y=51     width=23     height=51     xoffset=-2     yoffset=-1    xadvance=19     page=0  chnl=0 
char id=121   x=317     y=51     width=19     height=51     xoffset=-1     yoffset=-1    xadvance=14     page=0  chnl=0 
char id=120   x=336     y=51     width=21     height=51     xoffset=-1     yoffset=-1    xadvance=18     page=0  chnl=0 
char id=119   x=357     y=51     width=20     height=51     xoffset=0     yoffset=-1    xadvance=17     page=0  chnl=0 
char id=118   x=377     y=51     width=18     height=51     xoffset=-1     yoffset=-1    xadvance=16     page=0  chnl=0 
char id=117   x=395     y=51     width=21     height=51     xoffset=0     yoffset=-1    xadvance=20     page=0  chnl=0 
char id=116   x=416     y=51     width=20     height=51     xoffset=-2     yoffset=-1    xadvance=16     page=0  chnl=0 
char id=115   x=436     y=51     width=22     height=51     xoffset=-3     yoffset=-1    xadvance=17     page=0  chnl=0 
char id=114   x=458     y=51     width=20     height=51     xoffset=0     yoffset=-1    xadvance=19     page=0  chnl=0 
char id=113   x=478     y=51     width=21     height=51     xoffset=0     yoffset=-1    xadvance=20     page=0  chnl=0 
char id=112   x=0     y=102     width=20     height=51     xoffset=-1     yoffset=-1    xadvance=18     page=0  chnl=0 
char id=111   x=20     y=102     width=21     height=51     xoffset=0     yoffset=-1    xadvance=20     page=0  chnl=0 
char id=110   x=41     y=102     width=21     height=51     xoffset=-1     yoffset=-1    xadvance=20     page=0  chnl=0 
char id=109   x=62     y=102     width=21     height=51     xoffset=0     yoffset=-1    xadvance=20     page=0  chnl=0 
char id=108   x=83     y=102     width=22     height=51     xoffset=0     yoffset=-1    xadvance=20     page=0  chnl=0 
char id=107   x=105     y=102     width=21     height=51     xoffset=-2     yoffset=-1    xadvance=19     page=0  chnl=0 
char id=106   x=126     y=102     width=22     height=51     xoffset=0     yoffset=-1    xadvance=20     page=0  chnl=0 
char id=105   x=148     y=102     width=14     height=51     xoffset=3     yoffset=-1    xadvance=13     page=0  chnl=0 
char id=104   x=162     y=102     width=21     height=51     xoffset=1     yoffset=-1    xadvance=20     page=0  chnl=0 
char id=103   x=183     y=102     width=21     height=51     xoffset=-1     yoffset=-1    xadvance=20     page=0  chnl=0 
char id=102   x=204     y=102     width=21     height=51     xoffset=0     yoffset=-1    xadvance=18     page=0  chnl=0 
char id=101   x=225     y=102     width=21     height=51     xoffset=0     yoffset=-1    xadvance=20     page=0  chnl=0 
char id=100   x=246     y=102     width=23     height=51     xoffset=0     yoffset=-1    xadvance=21     page=0  chnl=0 
char id=99   x=269     y=102     width=21     height=51     xoffset=-1     yoffset=-1    xadvance=20     page=0  chnl=0 
char id=98   x=290     y=102     width=21     height=51     xoffset=0     yoffset=-1    xadvance=20     page=0  chnl=0 
char id=97   x=311     y=102     width=21     height=51     xoffset=0     yoffset=-1    xadvance=19     page=0  chnl=0 
char id=90   x=332     y=102     width=24     height=51     xoffset=0     yoffset=-1    xadvance=22     page=0  chnl=0 
char id=89   x=356     y=102     width=20     height=51     xoffset=-2     yoffset=-1    xadvance=16     page=0  chnl=0 
char id=88   x=376     y=102     width=20     height=51     xoffset=0     yoffset=-1    xadvance=18     page=0  chnl=0 
char id=87   x=396     y=102     width=18     height=51     xoffset=0     yoffset=-1    xadvance=17     page=0  chnl=0 
char id=86   x=414     y=102     width=18     height=51     xoffset=0     yoffset=-1    xadvance=14     page=0  chnl=0 
char id=85   x=432     y=102     width=21     height=51     xoffset=0     yoffset=-1    xadvance=20     page=0  chnl=0 
char id=84   x=453     y=102     width=19     height=51     xoffset=-1     yoffset=-1    xadvance=15     page=0  chnl=0 
char id=83   x=472     y=102     width=20     height=51     xoffset=0     yoffset=-1    xadvance=19     page=0  chnl=0 
char id=82   x=0     y=153     width=20     height=51     xoffset=-1     yoffset=-1    xadvance=19     page=0  chnl=0 
char id=81   x=20     y=153     width=20     height=51     xoffset=-1     yoffset=-1    xadvance=19     page=0  chnl=0 
char id=80   x=40     y=153     width=20     height=51     xoffset=-1     yoffset=-1    xadvance=18     page=0  chnl=0 
char id=79   x=60     y=153     width=21     height=51     xoffset=0     yoffset=-1    xadvance=20     page=0  chnl=0 
char id=78   x=81     y=153     width=21     height=51     xoffset=1     yoffset=-1    xadvance=20     page=0  chnl=0 
char id=77   x=102     y=153     width=21     height=51     xoffset=0     yoffset=-1    xadvance=20     page=0  chnl=0 
char id=76   x=123     y=153     width=20     height=51     xoffset=0     yoffset=-1    xadvance=19     page=0  chnl=0 
char id=75   x=143     y=153     width=21     height=51     xoffset=0     yoffset=-1    xadvance=20     page=0  chnl=0 
char id=74   x=164     y=153     width=20     height=51     xoffset=-2     yoffset=-1    xadvance=17     page=0  chnl=0 
char id=73   x=184     y=153     width=12     height=51     xoffset=1     yoffset=-1    xadvance=11     page=0  chnl=0 
char id=72   x=196     y=153     width=21     height=51     xoffset=0     yoffset=-1    xadvance=20     page=0  chnl=0 
char id=71   x=217     y=153     width=20     height=51     xoffset=-1     yoffset=-1    xadvance=18     page=0  chnl=0 
char id=70   x=237     y=153     width=20     height=51     xoffset=0     yoffset=-1    xadvance=18     page=0  chnl=0 
char id=69   x=257     y=153     width=21     height=51     xoffset=0     yoffset=-1    xadvance=20     page=0  chnl=0 
char id=68   x=278     y=153     width=22     height=51     xoffset=0     yoffset=-1    xadvance=20     page=0  chnl=0 
char id=67   x=300     y=153     width=21     height=51     xoffset=0     yoffset=-1    xadvance=20     page=0  chnl=0 
char id=66   x=321     y=153     width=20     height=51     xoffset=0     yoffset=-1    xadvance=19     page=0  chnl=0 
char id=65   x=341     y=153     width=19     height=51     xoffset=0     yoffset=-1    xadvance=18     page=0  chnl=0 
kernings count=-1
