info face="Dialog.plain" size=12 bold=0 italic=0 charset="" unicode=0 stretchH=100 smooth=1 aa=1 padding=0,0,0,0 spacing=0,0
common lineHeight=15 base=12 scaleW=256 scaleH=64 pages=1 packed=0
page id=0 file="Fridge12.png"
chars count=95
char id=32   x=0     y=0     width=0     height=0     xoffset=0     yoffset=12    xadvance=4     page=0  chnl=0 
char id=124   x=0     y=0     width=3     height=14     xoffset=2     yoffset=2    xadvance=4     page=0  chnl=0 
char id=106   x=3     y=0     width=4     height=14     xoffset=0     yoffset=2    xadvance=3     page=0  chnl=0 
char id=127   x=7     y=0     width=8     height=13     xoffset=1     yoffset=3    xadvance=7     page=0  chnl=0 
char id=36   x=15     y=0     width=7     height=13     xoffset=2     yoffset=2    xadvance=8     page=0  chnl=0 
char id=125   x=22     y=0     width=7     height=13     xoffset=1     yoffset=2    xadvance=8     page=0  chnl=0 
char id=123   x=29     y=0     width=7     height=13     xoffset=2     yoffset=2    xadvance=8     page=0  chnl=0 
char id=93   x=36     y=0     width=4     height=13     xoffset=1     yoffset=2    xadvance=5     page=0  chnl=0 
char id=91   x=40     y=0     width=4     height=13     xoffset=2     yoffset=2    xadvance=5     page=0  chnl=0 
char id=41   x=44     y=0     width=5     height=13     xoffset=1     yoffset=1    xadvance=5     page=0  chnl=0 
char id=40   x=49     y=0     width=4     height=13     xoffset=1     yoffset=1    xadvance=5     page=0  chnl=0 
char id=81   x=53     y=0     width=9     height=13     xoffset=1     yoffset=2    xadvance=9     page=0  chnl=0 
char id=74   x=62     y=0     width=5     height=13     xoffset=-1     yoffset=2    xadvance=3     page=0  chnl=0 
char id=92   x=67     y=0     width=5     height=12     xoffset=0     yoffset=2    xadvance=4     page=0  chnl=0 
char id=64   x=72     y=0     width=12     height=12     xoffset=1     yoffset=3    xadvance=13     page=0  chnl=0 
char id=47   x=84     y=0     width=5     height=12     xoffset=0     yoffset=2    xadvance=4     page=0  chnl=0 
char id=121   x=89     y=0     width=9     height=12     xoffset=-1     yoffset=4    xadvance=6     page=0  chnl=0 
char id=113   x=98     y=0     width=8     height=12     xoffset=1     yoffset=4    xadvance=8     page=0  chnl=0 
char id=112   x=106     y=0     width=8     height=12     xoffset=1     yoffset=4    xadvance=8     page=0  chnl=0 
char id=108   x=114     y=0     width=3     height=12     xoffset=1     yoffset=1    xadvance=3     page=0  chnl=0 
char id=107   x=117     y=0     width=7     height=12     xoffset=1     yoffset=1    xadvance=7     page=0  chnl=0 
char id=104   x=124     y=0     width=8     height=12     xoffset=1     yoffset=1    xadvance=8     page=0  chnl=0 
char id=103   x=132     y=0     width=8     height=12     xoffset=1     yoffset=4    xadvance=8     page=0  chnl=0 
char id=102   x=140     y=0     width=6     height=12     xoffset=0     yoffset=1    xadvance=4     page=0  chnl=0 
char id=100   x=146     y=0     width=8     height=12     xoffset=1     yoffset=1    xadvance=8     page=0  chnl=0 
char id=98   x=154     y=0     width=8     height=12     xoffset=1     yoffset=1    xadvance=8     page=0  chnl=0 
char id=38   x=162     y=0     width=10     height=11     xoffset=1     yoffset=2    xadvance=10     page=0  chnl=0 
char id=37   x=172     y=0     width=12     height=11     xoffset=0     yoffset=2    xadvance=11     page=0  chnl=0 
char id=63   x=184     y=0     width=6     height=11     xoffset=0     yoffset=2    xadvance=6     page=0  chnl=0 
char id=33   x=190     y=0     width=3     height=11     xoffset=2     yoffset=2    xadvance=5     page=0  chnl=0 
char id=57   x=193     y=0     width=8     height=11     xoffset=1     yoffset=2    xadvance=8     page=0  chnl=0 
char id=55   x=201     y=0     width=8     height=11     xoffset=1     yoffset=2    xadvance=8     page=0  chnl=0 
char id=53   x=209     y=0     width=7     height=11     xoffset=1     yoffset=2    xadvance=8     page=0  chnl=0 
char id=52   x=216     y=0     width=8     height=11     xoffset=1     yoffset=2    xadvance=8     page=0  chnl=0 
char id=50   x=224     y=0     width=8     height=11     xoffset=1     yoffset=2    xadvance=8     page=0  chnl=0 
char id=49   x=232     y=0     width=7     height=11     xoffset=1     yoffset=2    xadvance=8     page=0  chnl=0 
char id=116   x=239     y=0     width=6     height=11     xoffset=0     yoffset=2    xadvance=5     page=0  chnl=0 
char id=105   x=245     y=0     width=3     height=11     xoffset=1     yoffset=2    xadvance=3     page=0  chnl=0 
char id=90   x=0     y=14     width=9     height=11     xoffset=1     yoffset=2    xadvance=9     page=0  chnl=0 
char id=89   x=9     y=14     width=8     height=11     xoffset=0     yoffset=2    xadvance=7     page=0  chnl=0 
char id=88   x=17     y=14     width=8     height=11     xoffset=0     yoffset=2    xadvance=7     page=0  chnl=0 
char id=87   x=25     y=14     width=12     height=11     xoffset=0     yoffset=2    xadvance=11     page=0  chnl=0 
char id=86   x=37     y=14     width=11     height=11     xoffset=-1     yoffset=2    xadvance=8     page=0  chnl=0 
char id=85   x=48     y=14     width=9     height=11     xoffset=1     yoffset=2    xadvance=9     page=0  chnl=0 
char id=84   x=57     y=14     width=9     height=11     xoffset=0     yoffset=2    xadvance=7     page=0  chnl=0 
char id=83   x=66     y=14     width=8     height=11     xoffset=1     yoffset=2    xadvance=8     page=0  chnl=0 
char id=82   x=74     y=14     width=8     height=11     xoffset=1     yoffset=2    xadvance=8     page=0  chnl=0 
char id=80   x=82     y=14     width=8     height=11     xoffset=1     yoffset=2    xadvance=8     page=0  chnl=0 
char id=79   x=90     y=14     width=9     height=11     xoffset=1     yoffset=2    xadvance=9     page=0  chnl=0 
char id=78   x=99     y=14     width=9     height=11     xoffset=1     yoffset=2    xadvance=9     page=0  chnl=0 
char id=77   x=108     y=14     width=10     height=11     xoffset=1     yoffset=2    xadvance=10     page=0  chnl=0 
char id=76   x=118     y=14     width=7     height=11     xoffset=1     yoffset=2    xadvance=6     page=0  chnl=0 
char id=75   x=125     y=14     width=9     height=11     xoffset=1     yoffset=2    xadvance=7     page=0  chnl=0 
char id=73   x=134     y=14     width=3     height=11     xoffset=1     yoffset=2    xadvance=3     page=0  chnl=0 
char id=72   x=137     y=14     width=9     height=11     xoffset=1     yoffset=2    xadvance=9     page=0  chnl=0 
char id=71   x=146     y=14     width=9     height=11     xoffset=1     yoffset=2    xadvance=9     page=0  chnl=0 
char id=70   x=155     y=14     width=7     height=11     xoffset=1     yoffset=2    xadvance=7     page=0  chnl=0 
char id=69   x=162     y=14     width=8     height=11     xoffset=1     yoffset=2    xadvance=8     page=0  chnl=0 
char id=68   x=170     y=14     width=9     height=11     xoffset=1     yoffset=2    xadvance=9     page=0  chnl=0 
char id=66   x=179     y=14     width=7     height=11     xoffset=1     yoffset=2    xadvance=8     page=0  chnl=0 
char id=65   x=186     y=14     width=9     height=11     xoffset=0     yoffset=2    xadvance=8     page=0  chnl=0 
char id=35   x=195     y=14     width=10     height=10     xoffset=1     yoffset=3    xadvance=10     page=0  chnl=0 
char id=48   x=205     y=14     width=8     height=10     xoffset=1     yoffset=3    xadvance=8     page=0  chnl=0 
char id=56   x=213     y=14     width=8     height=10     xoffset=1     yoffset=3    xadvance=8     page=0  chnl=0 
char id=54   x=221     y=14     width=8     height=10     xoffset=1     yoffset=3    xadvance=8     page=0  chnl=0 
char id=51   x=229     y=14     width=8     height=10     xoffset=1     yoffset=3    xadvance=8     page=0  chnl=0 
char id=67   x=237     y=14     width=8     height=10     xoffset=1     yoffset=3    xadvance=8     page=0  chnl=0 
char id=43   x=245     y=14     width=9     height=9     xoffset=1     yoffset=4    xadvance=10     page=0  chnl=0 
char id=59   x=0     y=25     width=3     height=9     xoffset=1     yoffset=5    xadvance=4     page=0  chnl=0 
char id=122   x=3     y=25     width=7     height=9     xoffset=0     yoffset=4    xadvance=5     page=0  chnl=0 
char id=120   x=10     y=25     width=7     height=9     xoffset=0     yoffset=4    xadvance=6     page=0  chnl=0 
char id=119   x=17     y=25     width=10     height=9     xoffset=0     yoffset=4    xadvance=9     page=0  chnl=0 
char id=118   x=27     y=25     width=9     height=9     xoffset=-1     yoffset=4    xadvance=6     page=0  chnl=0 
char id=117   x=36     y=25     width=8     height=9     xoffset=1     yoffset=4    xadvance=8     page=0  chnl=0 
char id=114   x=44     y=25     width=6     height=9     xoffset=1     yoffset=4    xadvance=5     page=0  chnl=0 
char id=110   x=50     y=25     width=8     height=9     xoffset=1     yoffset=4    xadvance=8     page=0  chnl=0 
char id=109   x=58     y=25     width=11     height=9     xoffset=1     yoffset=4    xadvance=11     page=0  chnl=0 
char id=101   x=69     y=25     width=8     height=9     xoffset=1     yoffset=4    xadvance=8     page=0  chnl=0 
char id=99   x=77     y=25     width=7     height=9     xoffset=1     yoffset=4    xadvance=7     page=0  chnl=0 
char id=97   x=84     y=25     width=8     height=9     xoffset=1     yoffset=4    xadvance=8     page=0  chnl=0 
char id=42   x=92     y=25     width=6     height=8     xoffset=1     yoffset=2    xadvance=6     page=0  chnl=0 
char id=58   x=98     y=25     width=3     height=8     xoffset=1     yoffset=5    xadvance=4     page=0  chnl=0 
char id=115   x=101     y=25     width=7     height=8     xoffset=1     yoffset=5    xadvance=7     page=0  chnl=0 
char id=111   x=108     y=25     width=8     height=8     xoffset=1     yoffset=5    xadvance=8     page=0  chnl=0 
char id=62   x=116     y=25     width=10     height=7     xoffset=1     yoffset=5    xadvance=10     page=0  chnl=0 
char id=60   x=126     y=25     width=10     height=7     xoffset=1     yoffset=5    xadvance=10     page=0  chnl=0 
char id=61   x=136     y=25     width=10     height=5     xoffset=1     yoffset=6    xadvance=10     page=0  chnl=0 
char id=94   x=146     y=25     width=9     height=5     xoffset=1     yoffset=2    xadvance=10     page=0  chnl=0 
char id=44   x=155     y=25     width=3     height=5     xoffset=1     yoffset=9    xadvance=4     page=0  chnl=0 
char id=39   x=158     y=25     width=3     height=5     xoffset=1     yoffset=2    xadvance=3     page=0  chnl=0 
char id=34   x=161     y=25     width=5     height=5     xoffset=1     yoffset=2    xadvance=5     page=0  chnl=0 
char id=46   x=166     y=25     width=3     height=4     xoffset=1     yoffset=9    xadvance=4     page=0  chnl=0 
char id=96   x=169     y=25     width=4     height=4     xoffset=1     yoffset=1    xadvance=6     page=0  chnl=0 
char id=126   x=173     y=25     width=10     height=3     xoffset=1     yoffset=7    xadvance=10     page=0  chnl=0 
char id=95   x=183     y=25     width=8     height=3     xoffset=0     yoffset=13    xadvance=6     page=0  chnl=0 
char id=45   x=191     y=25     width=5     height=3     xoffset=1     yoffset=7    xadvance=4     page=0  chnl=0 
kernings count=-1
